10.18.3.2:yunxiao@#137
10.18.3.3:yunxiao@#135
10.18.3.4:yunxiao@#135
10.18.3.5:yunxiao@#135
10.18.3.6:yunxiao@#135
10.18.3.7:yunxiao@#135
10.18.3.8:yunxiao@#135
10.18.3.9:yunxiao@#135
10.18.3.10:yunxiao@#135
10.18.3.11:yunxiao@#136
10.18.3.12:yunxiao@#136
10.18.3.13:yunxiao@#136
10.18.3.14:yunxiao@#136
10.18.3.15:yunxiao@#136
10.18.3.16:yunxiao@#136
10.18.3.17:yunxiao@#136
10.18.3.18:yunxiao@#136
10.18.3.19:yunxiao@#136
10.18.3.20:yunxiao@#136
10.18.3.22:yunxiao@#137